…
                                 data = .x, family = binomial())),
         models = map(models, broom::tidy)) %>% 
  select(-data) %>% 
  unnest() %>% 
  mutate(., OR = exp(estimate),
            CI_low = estimate - std.error*qt(0.975, 2820),
            CI_high = estimate + std.error*qt(0.975, 2820),
            exp_CI_low = exp(CI_low),
            exp_CI_high = exp(CI_high)) %>%
  select(., city_state, term, OR, exp_CI_low, exp_CI_high) %>% 
  filter(., term == 'victim_raceBlack')
fit_logistic_all_cities
```

    ## # A tibble: 47 x 5
    ##    city_state      term                 OR exp_CI_low exp_CI_high
    ##    <chr>           <chr>             <dbl>      <dbl>       <dbl>
    ##  1 Albuquerque, NM victim_raceBlack 0.612      0.274        1.36 
    ##  2 Atlanta, GA     victim_raceBlack 0.760      0.435        1.33 
    ##  3 Baltimore, MD   victim_raceBlack 0.431      0.306        0.607
    ##  4 Baton Rouge, LA victim_raceBlack 0.653      0.305        1.40 
    ##  5 Birmingham, AL  victim_raceBlack 1.05       0.622        1.78 
    ##  6 Boston, MA      victim_raceBlack 0.0964     0.0394       0.236
    ##  7 Buffalo, NY     victim_raceBlack 0.368      0.200        0.678
    ##  8 Charlotte, NC   victim_raceBlack 0.613      0.351        1.07 
    ##  9 Chicago, IL     victim_raceBlack 0.552      0.423        0.721
    ## 10 Cincinnati, OH  victim_raceBlack 0.326      0.188        0.564
    ## # ... with 37 more rows
…
